tb/test_out/bltu_test/waveform.vcd
$version Generated by VerilatedVcd $end
$date Wed Dec 10 23:41:02 2025 $end
$timescale 1ps $end

 $scope module TOP $end
  $var wire 32 g a0 [31:0] $end
  $var wire  1 e clk $end
  $var wire  1 f rst $end
  $var wire  1 h trigger $end
  $scope module top $end
   $var wire  4 % ALUControl [3:0] $end
   $var wire  1 & ALUSrcA $end
   $var wire  1 ' ALUSrcB $end
   $var wire  3 + AddressingControl [2:0] $end
   $var wire  3 * ImmSrc [2:0] $end
   $var wire 32 - Instr [31:0] $end
   $var wire  1 ( MemWrite $end
   $var wire  2 # PCSrc [1:0] $end
   $var wire  1 $ RegWrite $end
   $var wire  2 ) ResultSrc [1:0] $end
   $var wire  1 , Zero $end
   $var wire 32 g a0 [31:0] $end
   $var wire  1 e clk $end
   $var wire  1 f rst $end
   $var wire  1 h trigger $end
   $scope module ctrl_inst $end
    $var wire  4 % ALUControl [3:0] $end
    $var wire  1 & ALUSrcA $end
    $var wire  1 ' ALUSrcB $end
    $var wire  3 + AddressingControl [2:0] $end
    $var wire  1 . Branch $end
    $var wire  3 / BranchType [2:0] $end
    $var wire  3 * ImmSrc [2:0] $end
    $var wire 32 - Instr [31:0] $end
    $var wire  2 0 Jump [1:0] $end
    $var wire  1 ( MemWrite $end
    $var wire  2 # PCSrc [1:0] $end
    $var wire  1 $ RegWrite $end
    $var wire  2 ) ResultSrc [1:0] $end
    $var wire  1 , Zero $end
    $var wire  3 2 funct3 [2:0] $end
    $var wire  7 3 funct7 [6:0] $end
    $var wire  7 1 opcode [6:0] $end
    $scope module control_unit $end
     $var wire  4 % ALUControl [3:0] $end
     $var wire  1 & ALUSrcA $end
     $var wire  1 ' ALUSrcB $end
     $var wire  3 + AddressingControl [2:0] $end
     $var wire  1 . Branch $end
     $var wire  3 / BranchType [2:0] $end
     $var wire  3 * ImmSrc [2:0] $end
     $var wire  2 0 Jump [1:0] $end
     $var wire  1 ( MemWrite $end
     $var wire  1 $ RegWrite $end
     $var wire  2 ) ResultSrc [1:0] $end
     $var wire  3 2 funct3 [2:0] $end
     $var wire  7 3 funct7 [6:0] $end
     $var wire  7 1 opcode [6:0] $end
    $upscope $end
    $scope module pcsrc_unit_inst $end
     $var wire  1 . Branch $end
     $var wire  3 / BranchType [2:0] $end
     $var wire  2 0 Jump [1:0] $end
     $var wire  2 # PCSrc [1:0] $end
     $var wire  1 , Zero $end
    $upscope $end
   $upscope $end
   $scope module dp_inst $end
    $var wire  4 % ALUControl [3:0] $end
    $var wire 32 8 ALUResult [31:0] $end
    $var wire  1 & ALUSrcA $end
    $var wire  1 ' ALUSrcB $end
    $var wire  3 + AddressingControl [2:0] $end
    $var wire 32 6 ImmExt [31:0] $end
    $var wire  3 * ImmSrc [2:0] $end
    $var wire 32 - Instr [31:0] $end
    $var wire 32 7 MemData [31:0] $end
    $var wire  1 ( MemWrite $end
    $var wire 32 4 PC [31:0] $end
    $var wire 32 5 PCPlus4 [31:0] $end
    $var wire  2 # PCSrc [1:0] $end
    $var wire 32 ; ReadData1 [31:0] $end
    $var wire 32 < ReadData2 [31:0] $end
    $var wire  1 $ RegWrite $end
    $var wire 32 = ResultData [31:0] $end
    $var wire  2 ) ResultSrc [1:0] $end
    $var wire 32 9 SrcA [31:0] $end
    $var wire 32 : SrcB [31:0] $end
    $var wire  1 , Zero $end
    $var wire 32 g a0 [31:0] $end
    $var wire  1 e clk $end
    $var wire  1 f rst $end
    $scope module alu_inst $end
     $var wire  4 % ALUControl [3:0] $end
     $var wire 32 8 ALUResult [31:0] $end
     $var wire 32 9 SrcA [31:0] $end
     $var wire 32 : SrcB [31:0] $end
     $var wire  1 , Zero $end
    $upscope $end
    $scope module data_mem_inst $end
     $var wire 32 8 A [31:0] $end
     $var wire 32 j ADDRESS_WIDTH [31:0] $end
     $var wire  3 + AddressingControl [2:0] $end
     $var wire 32 k DATA_WIDTH [31:0] $end
     $var wire 32 7 RD [31:0] $end
     $var wire 32 < WD [31:0] $end
     $var wire  1 ( WE $end
     $var wire 32 i XLEN [31:0] $end
     $var wire 17 > addr [16:0] $end
     $var wire  1 e clk $end
    $upscope $end
    $scope module instr_mem_inst $end
     $var wire 32 4 A [31:0] $end
     $var wire 32 - RD [31:0] $end
    $upscope $end
    $scope module pc_inst $end
     $var wire 32 8 ALUResult [31:0] $end
     $var wire 32 6 ImmExt [31:0] $end
     $var wire 32 4 PC [31:0] $end
     $var wire 32 ? PCNext [31:0] $end
     $var wire 32 5 PCPlus4 [31:0] $end
     $var wire  2 # PCSrc [1:0] $end
     $var wire 32 @ PCTarget [31:0] $end
     $var wire 32 i WIDTH [31:0] $end
     $var wire  1 e clk $end
     $var wire  1 f rst $end
    $upscope $end
    $scope module reg_file_inst $end
     $var wire  5 B AD1 [4:0] $end
     $var wire  5 C AD2 [4:0] $end
     $var wire  5 A AD3 [4:0] $end
     $var wire 32 l ADDRESS_WIDTH [31:0] $end
     $var wire 32 i DATA_WIDTH [31:0] $end
     $var wire 32 ; RD1 [31:0] $end
     $var wire 32 < RD2 [31:0] $end
     $var wire 32 = WD3 [31:0] $end
     $var wire  1 $ WE3 $end
     $var wire 32 g a0 [31:0] $end
     $var wire  1 e clk $end
     $var wire 32 D ram_array[0] [31:0] $end
     $var wire 32 N ram_array[10] [31:0] $end
     $var wire 32 O ram_array[11] [31:0] $end
     $var wire 32 P ram_array[12] [31:0] $end
     $var wire 32 Q ram_array[13] [31:0] $end
     $var wire 32 R ram_array[14] [31:0] $end
     $var wire 32 S ram_array[15] [31:0] $end
     $var wire 32 T ram_array[16] [31:0] $end
     $var wire 32 U ram_array[17] [31:0] $end
     $var wire 32 V ram_array[18] [31:0] $end
     $var wire 32 W ram_array[19] [31:0] $end
     $var wire 32 E ram_array[1] [31:0] $end
     $var wire 32 X ram_array[20] [31:0] $end
     $var wire 32 Y ram_array[21] [31:0] $end
     $var wire 32 Z ram_array[22] [31:0] $end
     $var wire 32 [ ram_array[23] [31:0] $end
     $var wire 32 \ ram_array[24] [31:0] $end
     $var wire 32 ] ram_array[25] [31:0] $end
     $var wire 32 ^ ram_array[26] [31:0] $end
     $var wire 32 _ ram_array[27] [31:0] $end
     $var wire 32 ` ram_array[28] [31:0] $end
     $var wire 32 a ram_array[29] [31:0] $end
     $var wire 32 F ram_array[2] [31:0] $end
     $var wire 32 b ram_array[30] [31:0] $end
     $var wire 32 c ram_array[31] [31:0] $end
     $var wire 32 G ram_array[3] [31:0] $end
     $var wire 32 H ram_array[4] [31:0] $end
     $var wire 32 I ram_array[5] [31:0] $end
     $var wire 32 J ram_array[6] [31:0] $end
     $var wire 32 K ram_array[7] [31:0] $end
     $var wire 32 L ram_array[8] [31:0] $end
     $var wire 32 M ram_array[9] [31:0] $end
    $upscope $end
    $scope module sign_ext_inst $end
     $var wire 25 d Imm [31:7] $end
     $var wire 32 6 ImmExt [31:0] $end
     $var wire  3 * ImmSrc [2:0] $end
    $upscope $end
   $upscope $end
  $upscope $end
 $upscope $end
$enddefinitions $end


#0
b00 #
1$
b0000 %
0&
1'
0(
b00 )
b000 *
b000 +
0,
b11111111111100000000001010010011 -
0.
b000 /
b00 0
b0010011 1
b000 2
b1111111 3
b00000000000000000000000000000000 4
b00000000000000000000000000000100 5
b11111111111111111111111111111111 6
b00000000000000000000000000000000 7
b11111111111111111111111111111111 8
b00000000000000000000000000000000 9
b11111111111111111111111111111111 :
b00000000000000000000000000000000 ;
b00000000000000000000000000000000 <
b11111111111111111111111111111111 =
b11111111111111111 >
b00000000000000000000000000000100 ?
b11111111111111111111111111111111 @
b00101 A
b00000 B
b11111 C
b00000000000000000000000000000000 D
b00000000000000000000000000000000 E
b00000000000000000000000000000000 F
b00000000000000000000000000000000 G
b00000000000000000000000000000000 H
b00000000000000000000000000000000 I
b00000000000000000000000000000000 J
b00000000000000000000000000000000 K
b00000000000000000000000000000000 L
b00000000000000000000000000000000 M
b00000000000000000000000000000000 N
b00000000000000000000000000000000 O
b00000000000000000000000000000000 P
b00000000000000000000000000000000 Q
b00000000000000000000000000000000 R
b00000000000000000000000000000000 S
b00000000000000000000000000000000 T
b00000000000000000000000000000000 U
b00000000000000000000000000000000 V
b00000000000000000000000000000000 W
b00000000000000000000000000000000 X
b00000000000000000000000000000000 Y
b00000000000000000000000000000000 Z
b00000000000000000000000000000000 [
b00000000000000000000000000000000 \
b00000000000000000000000000000000 ]
b00000000000000000000000000000000 ^
b00000000000000000000000000000000 _
b00000000000000000000000000000000 `
b00000000000000000000000000000000 a
b00000000000000000000000000000000 b
b00000000000000000000000000000000 c
b1111111111110000000000101 d
1e
1f
b00000000000000000000000000000000 g
0h
b00000000000000000000000000100000 i
b00000000000000000000000000010001 j
b00000000000000000000000000001000 k
b00000000000000000000000000000101 l
#1
0e
#2
b11111111111111111111111111111111 I
1e
#3
0e
#4
1e
#5
0e
#6
1e
#7
0e
#8
1e
#9
0e
#10
1e
#11
0e
#12
1e
#13
0e
#14
1e
#15
0e
#16
1e
#17
0e
#18
1e
#19
0e
#20
b00000000000100000000001100010011 -
b0000000 3
b00000000000000000000000000000100 4
b00000000000000000000000000001000 5
b00000000000000000000000000000001 6
b00000000000000000000000000000001 8
b00000000000000000000000000000001 :
b00000000000000000000000000000001 =
b00000000000000001 >
b00000000000000000000000000001000 ?
b00000000000000000000000000000101 @
b00110 A
b00001 C
b0000000000010000000000110 d
1e
0f
#21
0e
#22
0$
b1001 %
0'
b010 *
1,
b00000000011000101110100001100011 -
1.
b110 /
b1100011 1
b110 2
b00000000000000000000000000001000 4
b00000000000000000000000000001100 5
b00000000000000000000000000010000 6
b00000000000000000000000000000000 8
b11111111111111111111111111111111 9
b11111111111111111111111111111111 ;
b00000000000000000000000000000001 <
b00000000000000000000000000000000 =
b00000000000000000 >
b00000000000000000000000000001100 ?
b00000000000000000000000000011000 @
b10000 A
b00101 B
b00110 C
b00000000000000000000000000000001 J
b0000000001100010111010000 d
1e
#23
0e
#24
b01 #
1$
b0000 %
b10 )
b011 *
b00000000010000000000000001101111 -
0.
b000 /
b01 0
b1101111 1
b000 2
b00000000000000000000000000001100 4
b00000000000000000000000000010000 5
b00000000000000000000000000000100 6
b00000000000000000000000000000000 9
b00000000000000000000000000000000 :
b00000000000000000000000000000000 ;
b00000000000000000000000000000000 <
b00000000000000000000000000010000 =
b00000000000000000000000000010000 ?
b00000000000000000000000000010000 @
b00000 A
b00000 B
b00100 C
b0000000001000000000000000 d
1e
#25
0e
#26
b00 #
1'
b00 )
b000 *
0,
b00000000000100000000010100010011 -
b00 0
b0010011 1
b00000000000000000000000000010000 4
b00000000000000000000000000010100 5
b00000000000000000000000000000001 6
b00000000000000000000000000000001 8
b00000000000000000000000000000001 :
b00000000000000000000000000000001 =
b00000000000000001 >
b00000000000000000000000000010100 ?
b00000000000000000000000000010001 @
b01010 A
b00001 C
b0000000000010000000001010 d
1e
#27
0e
#28
b01 #
0'
b10 )
b011 *
1,
b00000000110000000000000001101111 -
b01 0
b1101111 1
b00000000000000000000000000010100 4
b00000000000000000000000000011000 5
b00000000000000000000000000001100 6
b00000000000000000000000000000000 8
b00000000000000000000000000000000 :
b00000000000000000000000000011000 =
b00000000000000000 >
b00000000000000000000000000100000 ?
b00000000000000000000000000100000 @
b00000 A
b01100 C
b00000000000000000000000000000001 N
b0000000011000000000000000 d
1e
b00000000000000000000000000000001 g
#29
0e
#30
b00000000000000000000000001101111 -
b00000000000000000000000000100000 4
b00000000000000000000000000100100 5
b00000000000000000000000000000000 6
b00000000000000000000000000100100 =
b00000 C
b0000000000000000000000000 d
1e
