tb/test_out/1_addi_bne/waveform.vcd
$version Generated by VerilatedVcd $end
$date Wed Dec 10 21:51:28 2025 $end
$timescale 1ps $end

 $scope module TOP $end
  $var wire 32 g a0 [31:0] $end
  $var wire  1 e clk $end
  $var wire  1 f rst $end
  $var wire  1 h trigger $end
  $scope module top $end
   $var wire  4 % ALUControl [3:0] $end
   $var wire  1 & ALUSrcA $end
   $var wire  1 ' ALUSrcB $end
   $var wire  3 + AddressingControl [2:0] $end
   $var wire  3 * ImmSrc [2:0] $end
   $var wire 32 - Instr [31:0] $end
   $var wire  1 ( MemWrite $end
   $var wire  2 # PCSrc [1:0] $end
   $var wire  1 $ RegWrite $end
   $var wire  2 ) ResultSrc [1:0] $end
   $var wire  1 , Zero $end
   $var wire 32 g a0 [31:0] $end
   $var wire  1 e clk $end
   $var wire  1 f rst $end
   $var wire  1 h trigger $end
   $scope module ctrl_inst $end
    $var wire  4 % ALUControl [3:0] $end
    $var wire  1 & ALUSrcA $end
    $var wire  1 ' ALUSrcB $end
    $var wire  3 + AddressingControl [2:0] $end
    $var wire  1 . Branch $end
    $var wire  3 / BranchType [2:0] $end
    $var wire  3 * ImmSrc [2:0] $end
    $var wire 32 - Instr [31:0] $end
    $var wire  2 0 Jump [1:0] $end
    $var wire  1 ( MemWrite $end
    $var wire  2 # PCSrc [1:0] $end
    $var wire  1 $ RegWrite $end
    $var wire  2 ) ResultSrc [1:0] $end
    $var wire  1 , Zero $end
    $var wire  3 2 funct3 [2:0] $end
    $var wire  7 3 funct7 [6:0] $end
    $var wire  7 1 opcode [6:0] $end
    $scope module control_unit $end
     $var wire  4 % ALUControl [3:0] $end
     $var wire  1 & ALUSrcA $end
     $var wire  1 ' ALUSrcB $end
     $var wire  3 + AddressingControl [2:0] $end
     $var wire  1 . Branch $end
     $var wire  3 / BranchType [2:0] $end
     $var wire  3 * ImmSrc [2:0] $end
     $var wire  2 0 Jump [1:0] $end
     $var wire  1 ( MemWrite $end
     $var wire  1 $ RegWrite $end
     $var wire  2 ) ResultSrc [1:0] $end
     $var wire  3 2 funct3 [2:0] $end
     $var wire  7 3 funct7 [6:0] $end
     $var wire  7 1 opcode [6:0] $end
    $upscope $end
    $scope module pcsrc_unit_inst $end
     $var wire  1 . Branch $end
     $var wire  3 / BranchType [2:0] $end
     $var wire  2 0 Jump [1:0] $end
     $var wire  2 # PCSrc [1:0] $end
     $var wire  1 , Zero $end
    $upscope $end
   $upscope $end
   $scope module dp_inst $end
    $var wire  4 % ALUControl [3:0] $end
    $var wire 32 8 ALUResult [31:0] $end
    $var wire  1 & ALUSrcA $end
    $var wire  1 ' ALUSrcB $end
    $var wire  3 + AddressingControl [2:0] $end
    $var wire 32 6 ImmExt [31:0] $end
    $var wire  3 * ImmSrc [2:0] $end
    $var wire 32 - Instr [31:0] $end
    $var wire 32 7 MemData [31:0] $end
    $var wire  1 ( MemWrite $end
    $var wire 32 4 PC [31:0] $end
    $var wire 32 5 PCPlus4 [31:0] $end
    $var wire  2 # PCSrc [1:0] $end
    $var wire 32 ; ReadData1 [31:0] $end
    $var wire 32 < ReadData2 [31:0] $end
    $var wire  1 $ RegWrite $end
    $var wire 32 = ResultData [31:0] $end
    $var wire  2 ) ResultSrc [1:0] $end
    $var wire 32 9 SrcA [31:0] $end
    $var wire 32 : SrcB [31:0] $end
    $var wire  1 , Zero $end
    $var wire 32 g a0 [31:0] $end
    $var wire  1 e clk $end
    $var wire  1 f rst $end
    $scope module alu_inst $end
     $var wire  4 % ALUControl [3:0] $end
     $var wire 32 8 ALUResult [31:0] $end
     $var wire 32 9 SrcA [31:0] $end
     $var wire 32 : SrcB [31:0] $end
     $var wire  1 , Zero $end
    $upscope $end
    $scope module data_mem_inst $end
     $var wire 32 8 A [31:0] $end
     $var wire 32 j ADDRESS_WIDTH [31:0] $end
     $var wire  3 + AddressingControl [2:0] $end
     $var wire 32 k DATA_WIDTH [31:0] $end
     $var wire 32 7 RD [31:0] $end
     $var wire 32 < WD [31:0] $end
     $var wire  1 ( WE $end
     $var wire 32 i XLEN [31:0] $end
     $var wire 17 > addr [16:0] $end
     $var wire  1 e clk $end
    $upscope $end
    $scope module instr_mem_inst $end
     $var wire 32 4 A [31:0] $end
     $var wire 32 - RD [31:0] $end
    $upscope $end
    $scope module pc_inst $end
     $var wire 32 8 ALUResult [31:0] $end
     $var wire 32 6 ImmExt [31:0] $end
     $var wire 32 4 PC [31:0] $end
     $var wire 32 ? PCNext [31:0] $end
     $var wire 32 5 PCPlus4 [31:0] $end
     $var wire  2 # PCSrc [1:0] $end
     $var wire 32 @ PCTarget [31:0] $end
     $var wire 32 i WIDTH [31:0] $end
     $var wire  1 e clk $end
     $var wire  1 f rst $end
    $upscope $end
    $scope module reg_file_inst $end
     $var wire  5 B AD1 [4:0] $end
     $var wire  5 C AD2 [4:0] $end
     $var wire  5 A AD3 [4:0] $end
     $var wire 32 l ADDRESS_WIDTH [31:0] $end
     $var wire 32 i DATA_WIDTH [31:0] $end
     $var wire 32 ; RD1 [31:0] $end
     $var wire 32 < RD2 [31:0] $end
     $var wire 32 = WD3 [31:0] $end
     $var wire  1 $ WE3 $end
     $var wire 32 g a0 [31:0] $end
     $var wire  1 e clk $end
     $var wire 32 D ram_array[0] [31:0] $end
     $var wire 32 N ram_array[10] [31:0] $end
     $var wire 32 O ram_array[11] [31:0] $end
     $var wire 32 P ram_array[12] [31:0] $end
     $var wire 32 Q ram_array[13] [31:0] $end
     $var wire 32 R ram_array[14] [31:0] $end
     $var wire 32 S ram_array[15] [31:0] $end
     $var wire 32 T ram_array[16] [31:0] $end
     $var wire 32 U ram_array[17] [31:0] $end
     $var wire 32 V ram_array[18] [31:0] $end
     $var wire 32 W ram_array[19] [31:0] $end
     $var wire 32 E ram_array[1] [31:0] $end
     $var wire 32 X ram_array[20] [31:0] $end
     $var wire 32 Y ram_array[21] [31:0] $end
     $var wire 32 Z ram_array[22] [31:0] $end
     $var wire 32 [ ram_array[23] [31:0] $end
     $var wire 32 \ ram_array[24] [31:0] $end
     $var wire 32 ] ram_array[25] [31:0] $end
     $var wire 32 ^ ram_array[26] [31:0] $end
     $var wire 32 _ ram_array[27] [31:0] $end
     $var wire 32 ` ram_array[28] [31:0] $end
     $var wire 32 a ram_array[29] [31:0] $end
     $var wire 32 F ram_array[2] [31:0] $end
     $var wire 32 b ram_array[30] [31:0] $end
     $var wire 32 c ram_array[31] [31:0] $end
     $var wire 32 G ram_array[3] [31:0] $end
     $var wire 32 H ram_array[4] [31:0] $end
     $var wire 32 I ram_array[5] [31:0] $end
     $var wire 32 J ram_array[6] [31:0] $end
     $var wire 32 K ram_array[7] [31:0] $end
     $var wire 32 L ram_array[8] [31:0] $end
     $var wire 32 M ram_array[9] [31:0] $end
    $upscope $end
    $scope module sign_ext_inst $end
     $var wire 25 d Imm [31:7] $end
     $var wire 32 6 ImmExt [31:0] $end
     $var wire  3 * ImmSrc [2:0] $end
    $upscope $end
   $upscope $end
  $upscope $end
 $upscope $end
$enddefinitions $end


#0
b00 #
1$
b0000 %
0&
1'
0(
b00 )
b000 *
b000 +
0,
b00001111111100000000001100010011 -
0.
b000 /
b00 0
b0010011 1
b000 2
b0000111 3
b00000000000000000000000000000000 4
b00000000000000000000000000000100 5
b00000000000000000000000011111111 6
b00000000000000000000000000000000 7
b00000000000000000000000011111111 8
b00000000000000000000000000000000 9
b00000000000000000000000011111111 :
b00000000000000000000000000000000 ;
b00000000000000000000000000000000 <
b00000000000000000000000011111111 =
b00000000011111111 >
b00000000000000000000000000000100 ?
b00000000000000000000000011111111 @
b00110 A
b00000 B
b11111 C
b00000000000000000000000000000000 D
b00000000000000000000000000000000 E
b00000000000000000000000000000000 F
b00000000000000000000000000000000 G
b00000000000000000000000000000000 H
b00000000000000000000000000000000 I
b00000000000000000000000000000000 J
b00000000000000000000000000000000 K
b00000000000000000000000000000000 L
b00000000000000000000000000000000 M
b00000000000000000000000000000000 N
b00000000000000000000000000000000 O
b00000000000000000000000000000000 P
b00000000000000000000000000000000 Q
b00000000000000000000000000000000 R
b00000000000000000000000000000000 S
b00000000000000000000000000000000 T
b00000000000000000000000000000000 U
b00000000000000000000000000000000 V
b00000000000000000000000000000000 W
b00000000000000000000000000000000 X
b00000000000000000000000000000000 Y
b00000000000000000000000000000000 Z
b00000000000000000000000000000000 [
b00000000000000000000000000000000 \
b00000000000000000000000000000000 ]
b00000000000000000000000000000000 ^
b00000000000000000000000000000000 _
b00000000000000000000000000000000 `
b00000000000000000000000000000000 a
b00000000000000000000000000000000 b
b00000000000000000000000000000000 c
b0000111111110000000000110 d
1e
1f
b00000000000000000000000000000000 g
0h
b00000000000000000000000000100000 i
b00000000000000000000000000010001 j
b00000000000000000000000000001000 k
b00000000000000000000000000000101 l
#1
0e
#2
b00000000000000000000000011111111 J
1e
#3
0e
#4
1e
#5
0e
#6
1e
#7
0e
#8
1e
#9
0e
#10
1e
#11
0e
#12
1e
#13
0e
#14
1e
#15
0e
#16
1e
#17
0e
#18
1e
#19
0e
#20
1,
b00000000000000000000010100010011 -
b0000000 3
b00000000000000000000000000000100 4
b00000000000000000000000000001000 5
b00000000000000000000000000000000 6
b00000000000000000000000000000000 8
b00000000000000000000000000000000 :
b00000000000000000000000000000000 =
b00000000000000000 >
b00000000000000000000000000001000 ?
b00000000000000000000000000000100 @
b01010 A
b00000 C
b0000000000000000000001010 d
1e
0f
#21
0e
#22
b00000000000000000000010110010011 -
b00000000000000000000000000001000 4
b00000000000000000000000000001100 5
b00000000000000000000000000001100 ?
b00000000000000000000000000001000 @
b01011 A
b0000000000000000000001011 d
1e
#23
0e
#24
b00000000000001011000010100010011 -
b00000000000000000000000000001100 4
b00000000000000000000000000010000 5
b00000000000000000000000000010000 ?
b00000000000000000000000000001100 @
b01010 A
b01011 B
b0000000000000101100001010 d
1e
#25
0e
#26
0,
b00000000000101011000010110010011 -
b00000000000000000000000000010000 4
b00000000000000000000000000010100 5
b00000000000000000000000000000001 6
b00000000000000000000000000000001 8
b00000000000000000000000000000001 :
b00000000000000000000000000000001 =
b00000000000000001 >
b00000000000000000000000000010100 ?
b00000000000000000000000000010001 @
b01011 A
b00001 C
b0000000000010101100001011 d
1e
#27
0e
#28
b01 #
0$
b0001 %
0'
b010 *
b11111110011001011001110011100011 -
1.
b001 /
b1100011 1
b001 2
b1111111 3
b00000000000000000000000000010100 4
b00000000000000000000000000011000 5
b11111111111111111111111111111000 6
b11111111111111111111111100000010 8
b00000000000000000000000000000001 9
b00000000000000000000000011111111 :
b00000000000000000000000000000001 ;
b00000000000000000000000011111111 <
b11111111111111111111111100000010 =
b11111111100000010 >
b00000000000000000000000000001100 ?
b00000000000000000000000000001100 @
b11001 A
b00110 C
b00000000000000000000000000000001 O
b1111111001100101100111001 d
1e
#29
0e
#30
b00 #
1$
b0000 %
1'
b000 *
b00000000000001011000010100010011 -
0.
b000 /
b0010011 1
b000 2
b0000000 3
b00000000000000000000000000001100 4
b00000000000000000000000000010000 5
b00000000000000000000000000000000 6
b00000000000000000000000000000001 8
b00000000000000000000000000000000 :
b00000000000000000000000000000000 <
b00000000000000000000000000000001 =
b00000000000000001 >
b00000000000000000000000000010000 ?
b01010 A
b00000 C
b0000000000000101100001010 d
1e
#31
0e
#32
b00000000000101011000010110010011 -
b00000000000000000000000000010000 4
b00000000000000000000000000010100 5
b00000000000000000000000000000001 6
b00000000000000000000000000000010 8
b00000000000000000000000000000001 :
b00000000000000000000000000000010 =
b00000000000000010 >
b00000000000000000000000000010100 ?
b00000000000000000000000000010001 @
b01011 A
b00001 C
b00000000000000000000000000000001 N
b0000000000010101100001011 d
1e
b00000000000000000000000000000001 g
#33
0e
#34
b01 #
0$
b0001 %
0'
b010 *
b11111110011001011001110011100011 -
1.
b001 /
b1100011 1
b001 2
b1111111 3
b00000000000000000000000000010100 4
b00000000000000000000000000011000 5
b11111111111111111111111111111000 6
b11111111111111111111111100000011 8
b00000000000000000000000000000010 9
b00000000000000000000000011111111 :
b00000000000000000000000000000010 ;
b00000000000000000000000011111111 <
b11111111111111111111111100000011 =
b11111111100000011 >
b00000000000000000000000000001100 ?
b00000000000000000000000000001100 @
b11001 A
b00110 C
b00000000000000000000000000000010 O
b1111111001100101100111001 d
1e
#35
0e
#36
b00 #
1$
b0000 %
1'
b000 *
b00000000000001011000010100010011 -
0.
b000 /
b0010011 1
b000 2
b0000000 3
b00000000000000000000000000001100 4
b00000000000000000000000000010000 5
b00000000000000000000000000000000 6
b00000000000000000000000000000010 8
b00000000000000000000000000000000 :
b00000000000000000000000000000000 <
b00000000000000000000000000000010 =
b00000000000000010 >
b00000000000000000000000000010000 ?
b01010 A
b00000 C
b0000000000000101100001010 d
1e
#37
0e
#38
b00000000000101011000010110010011 -
b00000000000000000000000000010000 4
b00000000000000000000000000010100 5
b00000000000000000000000000000001 6
b00000000000000000000000000000011 8
b00000000000000000000000000000001 :
b00000000000000000000000000000011 =
b00000000000000011 >
b00000000000000000000000000010100 ?
b00000000000000000000000000010001 @
b01011 A
b00001 C
b00000000000000000000000000000010 N
b0000000000010101100001011 d
1e
b00000000000000000000000000000010 g
#39
0e
#40
b01 #
0$
b0001 %
0'
b010 *
b11111110011001011001110011100011 -
1.
b001 /
b1100011 1
b001 2
b1111111 3
b00000000000000000000000000010100 4
b00000000000000000000000000011000 5
b11111111111111111111111111111000 6
b11111111111111111111111100000100 8
b00000000000000000000000000000011 9
b00000000000000000000000011111111 :
b00000000000000000000000000000011 ;
b00000000000000000000000011111111 <
b11111111111111111111111100000100 =
b11111111100000100 >
b00000000000000000000000000001100 ?
b00000000000000000000000000001100 @
b11001 A
b00110 C
b00000000000000000000000000000011 O
b1111111001100101100111001 d
1e
#41
0e
#42
b00 #
1$
b0000 %
1'
b000 *
b00000000000001011000010100010011 -
0.
b000 /
b0010011 1
b000 2
b0000000 3
b00000000000000000000000000001100 4
b00000000000000000000000000010000 5
b00000000000000000000000000000000 6
b00000000000000000000000000000011 8
b00000000000000000000000000000000 :
b00000000000000000000000000000000 <
b00000000000000000000000000000011 =
b00000000000000011 >
b00000000000000000000000000010000 ?
b01010 A
b00000 C
b0000000000000101100001010 d
1e
#43
0e
#44
b00000000000101011000010110010011 -
b00000000000000000000000000010000 4
b00000000000000000000000000010100 5
b00000000000000000000000000000001 6
b00000000000000000000000000000100 8
b00000000000000000000000000000001 :
b00000000000000000000000000000100 =
b00000000000000100 >
b00000000000000000000000000010100 ?
b00000000000000000000000000010001 @
b01011 A
b00001 C
b00000000000000000000000000000011 N
b0000000000010101100001011 d
1e
b00000000000000000000000000000011 g
#45
0e
#46
b01 #
0$
b0001 %
0'
b010 *
b11111110011001011001110011100011 -
1.
b001 /
b1100011 1
b001 2
b1111111 3
b00000000000000000000000000010100 4
b00000000000000000000000000011000 5
b11111111111111111111111111111000 6
b11111111111111111111111100000101 8
b00000000000000000000000000000100 9
b00000000000000000000000011111111 :
b00000000000000000000000000000100 ;
b00000000000000000000000011111111 <
b11111111111111111111111100000101 =
b11111111100000101 >
b00000000000000000000000000001100 ?
b00000000000000000000000000001100 @
b11001 A
b00110 C
b00000000000000000000000000000100 O
b1111111001100101100111001 d
1e
#47
0e
#48
b00 #
1$
b0000 %
1'
b000 *
b00000000000001011000010100010011 -
0.
b000 /
b0010011 1
b000 2
b0000000 3
b00000000000000000000000000001100 4
b00000000000000000000000000010000 5
b00000000000000000000000000000000 6
b00000000000000000000000000000100 8
b00000000000000000000000000000000 :
b00000000000000000000000000000000 <
b00000000000000000000000000000100 =
b00000000000000100 >
b00000000000000000000000000010000 ?
b01010 A
b00000 C
b0000000000000101100001010 d
1e
#49
0e
#50
b00000000000101011000010110010011 -
b00000000000000000000000000010000 4
b00000000000000000000000000010100 5
b00000000000000000000000000000001 6
b00000000000000000000000000000101 8
b00000000000000000000000000000001 :
b00000000000000000000000000000101 =
b00000000000000101 >
b00000000000000000000000000010100 ?
b00000000000000000000000000010001 @
b01011 A
b00001 C
b00000000000000000000000000000100 N
b0000000000010101100001011 d
1e
b00000000000000000000000000000100 g
#51
0e
#52
b01 #
0$
b0001 %
0'
b010 *
b11111110011001011001110011100011 -
1.
b001 /
b1100011 1
b001 2
b1111111 3
b00000000000000000000000000010100 4
b00000000000000000000000000011000 5
b11111111111111111111111111111000 6
b11111111111111111111111100000110 8
b00000000000000000000000000000101 9
b00000000000000000000000011111111 :
b00000000000000000000000000000101 ;
b00000000000000000000000011111111 <
b11111111111111111111111100000110 =
b11111111100000110 >
b00000000000000000000000000001100 ?
b00000000000000000000000000001100 @
b11001 A
b00110 C
b00000000000000000000000000000101 O
b1111111001100101100111001 d
1e
#53
0e
#54
b00 #
1$
b0000 %
1'
b000 *
b00000000000001011000010100010011 -
0.
b000 /
b0010011 1
b000 2
b0000000 3
b00000000000000000000000000001100 4
b00000000000000000000000000010000 5
b00000000000000000000000000000000 6
b00000000000000000000000000000101 8
b00000000000000000000000000000000 :
b00000000000000000000000000000000 <
b00000000000000000000000000000101 =
b00000000000000101 >
b00000000000000000000000000010000 ?
b01010 A
b00000 C
b0000000000000101100001010 d
1e
#55
0e
#56
b00000000000101011000010110010011 -
b00000000000000000000000000010000 4
b00000000000000000000000000010100 5
b00000000000000000000000000000001 6
b00000000000000000000000000000110 8
b00000000000000000000000000000001 :
b00000000000000000000000000000110 =
b00000000000000110 >
b00000000000000000000000000010100 ?
b00000000000000000000000000010001 @
b01011 A
b00001 C
b00000000000000000000000000000101 N
b0000000000010101100001011 d
1e
b00000000000000000000000000000101 g
#57
0e
#58
b01 #
0$
b0001 %
0'
b010 *
b11111110011001011001110011100011 -
1.
b001 /
b1100011 1
b001 2
b1111111 3
b00000000000000000000000000010100 4
b00000000000000000000000000011000 5
b11111111111111111111111111111000 6
b11111111111111111111111100000111 8
b00000000000000000000000000000110 9
b00000000000000000000000011111111 :
b00000000000000000000000000000110 ;
b00000000000000000000000011111111 <
b11111111111111111111111100000111 =
b11111111100000111 >
b00000000000000000000000000001100 ?
b00000000000000000000000000001100 @
b11001 A
b00110 C
b00000000000000000000000000000110 O
b1111111001100101100111001 d
1e
#59
0e
#60
b00 #
1$
b0000 %
1'
b000 *
b00000000000001011000010100010011 -
0.
b000 /
b0010011 1
b000 2
b0000000 3
b00000000000000000000000000001100 4
b00000000000000000000000000010000 5
b00000000000000000000000000000000 6
b00000000000000000000000000000110 8
b00000000000000000000000000000000 :
b00000000000000000000000000000000 <
b00000000000000000000000000000110 =
b00000000000000110 >
b00000000000000000000000000010000 ?
b01010 A
b00000 C
b0000000000000101100001010 d
1e
#61
0e
#62
b00000000000101011000010110010011 -
b00000000000000000000000000010000 4
b00000000000000000000000000010100 5
b00000000000000000000000000000001 6
b00000000000000000000000000000111 8
b00000000000000000000000000000001 :
b00000000000000000000000000000111 =
b00000000000000111 >
b00000000000000000000000000010100 ?
b00000000000000000000000000010001 @
b01011 A
b00001 C
b00000000000000000000000000000110 N
b0000000000010101100001011 d
1e
b00000000000000000000000000000110 g
#63
0e
#64
b01 #
0$
b0001 %
0'
b010 *
b11111110011001011001110011100011 -
1.
b001 /
b1100011 1
b001 2
b1111111 3
b00000000000000000000000000010100 4
b00000000000000000000000000011000 5
b11111111111111111111111111111000 6
b11111111111111111111111100001000 8
b00000000000000000000000000000111 9
b00000000000000000000000011111111 :
b00000000000000000000000000000111 ;
b00000000000000000000000011111111 <
b11111111111111111111111100001000 =
b11111111100001000 >
b00000000000000000000000000001100 ?
b00000000000000000000000000001100 @
b11001 A
b00110 C
b00000000000000000000000000000111 O
b1111111001100101100111001 d
1e
#65
0e
#66
b00 #
1$
b0000 %
1'
b000 *
b00000000000001011000010100010011 -
0.
b000 /
b0010011 1
b000 2
b0000000 3
b00000000000000000000000000001100 4
b00000000000000000000000000010000 5
b00000000000000000000000000000000 6
b00000000000000000000000000000111 8
b00000000000000000000000000000000 :
b00000000000000000000000000000000 <
b00000000000000000000000000000111 =
b00000000000000111 >
b00000000000000000000000000010000 ?
b01010 A
b00000 C
b0000000000000101100001010 d
1e
#67
0e
#68
b00000000000101011000010110010011 -
b00000000000000000000000000010000 4
b00000000000000000000000000010100 5
b00000000000000000000000000000001 6
b00000000000000000000000000001000 8
b00000000000000000000000000000001 :
b00000000000000000000000000001000 =
b00000000000001000 >
b00000000000000000000000000010100 ?
b00000000000000000000000000010001 @
b01011 A
b00001 C
b00000000000000000000000000000111 N
b0000000000010101100001011 d
1e
b00000000000000000000000000000111 g
#69
0e
#70
b01 #
0$
b0001 %
0'
b010 *
b11111110011001011001110011100011 -
1.
b001 /
b1100011 1
b001 2
b1111111 3
b00000000000000000000000000010100 4
b00000000000000000000000000011000 5
b11111111111111111111111111111000 6
b11111111111111111111111100001001 8
b00000000000000000000000000001000 9
b00000000000000000000000011111111 :
b00000000000000000000000000001000 ;
b00000000000000000000000011111111 <
b11111111111111111111111100001001 =
b11111111100001001 >
b00000000000000000000000000001100 ?
b00000000000000000000000000001100 @
b11001 A
b00110 C
b00000000000000000000000000001000 O
b1111111001100101100111001 d
1e
#71
0e
#72
b00 #
1$
b0000 %
1'
b000 *
b00000000000001011000010100010011 -
0.
b000 /
b0010011 1
b000 2
b0000000 3
b00000000000000000000000000001100 4
b00000000000000000000000000010000 5
b00000000000000000000000000000000 6
b00000000000000000000000000001000 8
b00000000000000000000000000000000 :
b00000000000000000000000000000000 <
b00000000000000000000000000001000 =
b00000000000001000 >
b00000000000000000000000000010000 ?
b01010 A
b00000 C
b0000000000000101100001010 d
1e
#73
0e
#74
b00000000000101011000010110010011 -
b00000000000000000000000000010000 4
b00000000000000000000000000010100 5
b00000000000000000000000000000001 6
b00000000000000000000000000001001 8
b00000000000000000000000000000001 :
b00000000000000000000000000001001 =
b00000000000001001 >
b00000000000000000000000000010100 ?
b00000000000000000000000000010001 @
b01011 A
b00001 C
b00000000000000000000000000001000 N
b0000000000010101100001011 d
1e
b00000000000000000000000000001000 g
#75
0e
#76
b01 #
0$
b0001 %
0'
b010 *
b11111110011001011001110011100011 -
1.
b001 /
b1100011 1
b001 2
b1111111 3
b00000000000000000000000000010100 4
b00000000000000000000000000011000 5
b11111111111111111111111111111000 6
b11111111111111111111111100001010 8
b00000000000000000000000000001001 9
b00000000000000000000000011111111 :
b00000000000000000000000000001001 ;
b00000000000000000000000011111111 <
b11111111111111111111111100001010 =
b11111111100001010 >
b00000000000000000000000000001100 ?
b00000000000000000000000000001100 @
b11001 A
b00110 C
b00000000000000000000000000001001 O
b1111111001100101100111001 d
1e
#77
0e
#78
b00 #
1$
b0000 %
1'
b000 *
b00000000000001011000010100010011 -
0.
b000 /
b0010011 1
b000 2
b0000000 3
b00000000000000000000000000001100 4
b00000000000000000000000000010000 5
b00000000000000000000000000000000 6
b00000000000000000000000000001001 8
b00000000000000000000000000000000 :
b00000000000000000000000000000000 <
b00000000000000000000000000001001 =
b00000000000001001 >
b00000000000000000000000000010000 ?
b01010 A
b00000 C
b0000000000000101100001010 d
1e
#79
0e
#80
b00000000000101011000010110010011 -
b00000000000000000000000000010000 4
b00000000000000000000000000010100 5
b00000000000000000000000000000001 6
b00000000000000000000000000001010 8
b00000000000000000000000000000001 :
b00000000000000000000000000001010 =
b00000000000001010 >
b00000000000000000000000000010100 ?
b00000000000000000000000000010001 @
b01011 A
b00001 C
b00000000000000000000000000001001 N
b0000000000010101100001011 d
1e
b00000000000000000000000000001001 g
#81
0e
#82
b01 #
0$
b0001 %
0'
b010 *
b11111110011001011001110011100011 -
1.
b001 /
b1100011 1
b001 2
b1111111 3
b00000000000000000000000000010100 4
b00000000000000000000000000011000 5
b11111111111111111111111111111000 6
b11111111111111111111111100001011 8
b00000000000000000000000000001010 9
b00000000000000000000000011111111 :
b00000000000000000000000000001010 ;
b00000000000000000000000011111111 <
b11111111111111111111111100001011 =
b11111111100001011 >
b00000000000000000000000000001100 ?
b00000000000000000000000000001100 @
b11001 A
b00110 C
b00000000000000000000000000001010 O
b1111111001100101100111001 d
1e
#83
0e
#84
b00 #
1$
b0000 %
1'
b000 *
b00000000000001011000010100010011 -
0.
b000 /
b0010011 1
b000 2
b0000000 3
b00000000000000000000000000001100 4
b00000000000000000000000000010000 5
b00000000000000000000000000000000 6
b00000000000000000000000000001010 8
b00000000000000000000000000000000 :
b00000000000000000000000000000000 <
b00000000000000000000000000001010 =
b00000000000001010 >
b00000000000000000000000000010000 ?
b01010 A
b00000 C
b0000000000000101100001010 d
1e
#85
0e
#86
b00000000000101011000010110010011 -
b00000000000000000000000000010000 4
b00000000000000000000000000010100 5
b00000000000000000000000000000001 6
b00000000000000000000000000001011 8
b00000000000000000000000000000001 :
b00000000000000000000000000001011 =
b00000000000001011 >
b00000000000000000000000000010100 ?
b00000000000000000000000000010001 @
b01011 A
b00001 C
b00000000000000000000000000001010 N
b0000000000010101100001011 d
1e
b00000000000000000000000000001010 g
#87
0e
#88
b01 #
0$
b0001 %
0'
b010 *
b11111110011001011001110011100011 -
1.
b001 /
b1100011 1
b001 2
b1111111 3
b00000000000000000000000000010100 4
b00000000000000000000000000011000 5
b11111111111111111111111111111000 6
b11111111111111111111111100001100 8
b00000000000000000000000000001011 9
b00000000000000000000000011111111 :
b00000000000000000000000000001011 ;
b00000000000000000000000011111111 <
b11111111111111111111111100001100 =
b11111111100001100 >
b00000000000000000000000000001100 ?
b00000000000000000000000000001100 @
b11001 A
b00110 C
b00000000000000000000000000001011 O
b1111111001100101100111001 d
1e
#89
0e
#90
b00 #
1$
b0000 %
1'
b000 *
b00000000000001011000010100010011 -
0.
b000 /
b0010011 1
b000 2
b0000000 3
b00000000000000000000000000001100 4
b00000000000000000000000000010000 5
b00000000000000000000000000000000 6
b00000000000000000000000000001011 8
b00000000000000000000000000000000 :
b00000000000000000000000000000000 <
b00000000000000000000000000001011 =
b00000000000001011 >
b00000000000000000000000000010000 ?
b01010 A
b00000 C
b0000000000000101100001010 d
1e
#91
0e
#92
b00000000000101011000010110010011 -
b00000000000000000000000000010000 4
b00000000000000000000000000010100 5
b00000000000000000000000000000001 6
b00000000000000000000000000001100 8
b00000000000000000000000000000001 :
b00000000000000000000000000001100 =
b00000000000001100 >
b00000000000000000000000000010100 ?
b00000000000000000000000000010001 @
b01011 A
b00001 C
b00000000000000000000000000001011 N
b0000000000010101100001011 d
1e
b00000000000000000000000000001011 g
#93
0e
#94
b01 #
0$
b0001 %
0'
b010 *
b11111110011001011001110011100011 -
1.
b001 /
b1100011 1
b001 2
b1111111 3
b00000000000000000000000000010100 4
b00000000000000000000000000011000 5
b11111111111111111111111111111000 6
b11111111111111111111111100001101 8
b00000000000000000000000000001100 9
b00000000000000000000000011111111 :
b00000000000000000000000000001100 ;
b00000000000000000000000011111111 <
b11111111111111111111111100001101 =
b11111111100001101 >
b00000000000000000000000000001100 ?
b00000000000000000000000000001100 @
b11001 A
b00110 C
b00000000000000000000000000001100 O
b1111111001100101100111001 d
1e
#95
0e
#96
b00 #
1$
b0000 %
1'
b000 *
b00000000000001011000010100010011 -
0.
b000 /
b0010011 1
b000 2
b0000000 3
b00000000000000000000000000001100 4
b00000000000000000000000000010000 5
b00000000000000000000000000000000 6
b00000000000000000000000000001100 8
b00000000000000000000000000000000 :
b00000000000000000000000000000000 <
b00000000000000000000000000001100 =
b00000000000001100 >
b00000000000000000000000000010000 ?
b01010 A
b00000 C
b0000000000000101100001010 d
1e
#97
0e
#98
b00000000000101011000010110010011 -
b00000000000000000000000000010000 4
b00000000000000000000000000010100 5
b00000000000000000000000000000001 6
b00000000000000000000000000001101 8
b00000000000000000000000000000001 :
b00000000000000000000000000001101 =
b00000000000001101 >
b00000000000000000000000000010100 ?
b00000000000000000000000000010001 @
b01011 A
b00001 C
b00000000000000000000000000001100 N
b0000000000010101100001011 d
1e
b00000000000000000000000000001100 g
#99
0e
#100
b01 #
0$
b0001 %
0'
b010 *
b11111110011001011001110011100011 -
1.
b001 /
b1100011 1
b001 2
b1111111 3
b00000000000000000000000000010100 4
b00000000000000000000000000011000 5
b11111111111111111111111111111000 6
b11111111111111111111111100001110 8
b00000000000000000000000000001101 9
b00000000000000000000000011111111 :
b00000000000000000000000000001101 ;
b00000000000000000000000011111111 <
b11111111111111111111111100001110 =
b11111111100001110 >
b00000000000000000000000000001100 ?
b00000000000000000000000000001100 @
b11001 A
b00110 C
b00000000000000000000000000001101 O
b1111111001100101100111001 d
1e
#101
0e
#102
b00 #
1$
b0000 %
1'
b000 *
b00000000000001011000010100010011 -
0.
b000 /
b0010011 1
b000 2
b0000000 3
b00000000000000000000000000001100 4
b00000000000000000000000000010000 5
b00000000000000000000000000000000 6
b00000000000000000000000000001101 8
b00000000000000000000000000000000 :
b00000000000000000000000000000000 <
b00000000000000000000000000001101 =
b00000000000001101 >
b00000000000000000000000000010000 ?
b01010 A
b00000 C
b0000000000000101100001010 d
1e
#103
0e
#104
b00000000000101011000010110010011 -
b00000000000000000000000000010000 4
b00000000000000000000000000010100 5
b00000000000000000000000000000001 6
b00000000000000000000000000001110 8
b00000000000000000000000000000001 :
b00000000000000000000000000001110 =
b00000000000001110 >
b00000000000000000000000000010100 ?
b00000000000000000000000000010001 @
b01011 A
b00001 C
b00000000000000000000000000001101 N
b0000000000010101100001011 d
1e
b00000000000000000000000000001101 g
#105
0e
