tb/test_out/8_branch_hazard/waveform.vcd
$version Generated by VerilatedVcd $end
$date Wed Dec 10 21:51:26 2025 $end
$timescale 1ps $end

 $scope module TOP $end
  $var wire 32 g a0 [31:0] $end
  $var wire  1 e clk $end
  $var wire  1 f rst $end
  $var wire  1 h trigger $end
  $scope module top $end
   $var wire  4 % ALUControl [3:0] $end
   $var wire  1 & ALUSrcA $end
   $var wire  1 ' ALUSrcB $end
   $var wire  3 + AddressingControl [2:0] $end
   $var wire  3 * ImmSrc [2:0] $end
   $var wire 32 - Instr [31:0] $end
   $var wire  1 ( MemWrite $end
   $var wire  2 # PCSrc [1:0] $end
   $var wire  1 $ RegWrite $end
   $var wire  2 ) ResultSrc [1:0] $end
   $var wire  1 , Zero $end
   $var wire 32 g a0 [31:0] $end
   $var wire  1 e clk $end
   $var wire  1 f rst $end
   $var wire  1 h trigger $end
   $scope module ctrl_inst $end
    $var wire  4 % ALUControl [3:0] $end
    $var wire  1 & ALUSrcA $end
    $var wire  1 ' ALUSrcB $end
    $var wire  3 + AddressingControl [2:0] $end
    $var wire  1 . Branch $end
    $var wire  3 / BranchType [2:0] $end
    $var wire  3 * ImmSrc [2:0] $end
    $var wire 32 - Instr [31:0] $end
    $var wire  2 0 Jump [1:0] $end
    $var wire  1 ( MemWrite $end
    $var wire  2 # PCSrc [1:0] $end
    $var wire  1 $ RegWrite $end
    $var wire  2 ) ResultSrc [1:0] $end
    $var wire  1 , Zero $end
    $var wire  3 2 funct3 [2:0] $end
    $var wire  7 3 funct7 [6:0] $end
    $var wire  7 1 opcode [6:0] $end
    $scope module control_unit $end
     $var wire  4 % ALUControl [3:0] $end
     $var wire  1 & ALUSrcA $end
     $var wire  1 ' ALUSrcB $end
     $var wire  3 + AddressingControl [2:0] $end
     $var wire  1 . Branch $end
     $var wire  3 / BranchType [2:0] $end
     $var wire  3 * ImmSrc [2:0] $end
     $var wire  2 0 Jump [1:0] $end
     $var wire  1 ( MemWrite $end
     $var wire  1 $ RegWrite $end
     $var wire  2 ) ResultSrc [1:0] $end
     $var wire  3 2 funct3 [2:0] $end
     $var wire  7 3 funct7 [6:0] $end
     $var wire  7 1 opcode [6:0] $end
    $upscope $end
    $scope module pcsrc_unit_inst $end
     $var wire  1 . Branch $end
     $var wire  3 / BranchType [2:0] $end
     $var wire  2 0 Jump [1:0] $end
     $var wire  2 # PCSrc [1:0] $end
     $var wire  1 , Zero $end
    $upscope $end
   $upscope $end
   $scope module dp_inst $end
    $var wire  4 % ALUControl [3:0] $end
    $var wire 32 8 ALUResult [31:0] $end
    $var wire  1 & ALUSrcA $end
    $var wire  1 ' ALUSrcB $end
    $var wire  3 + AddressingControl [2:0] $end
    $var wire 32 6 ImmExt [31:0] $end
    $var wire  3 * ImmSrc [2:0] $end
    $var wire 32 - Instr [31:0] $end
    $var wire 32 7 MemData [31:0] $end
    $var wire  1 ( MemWrite $end
    $var wire 32 4 PC [31:0] $end
    $var wire 32 5 PCPlus4 [31:0] $end
    $var wire  2 # PCSrc [1:0] $end
    $var wire 32 ; ReadData1 [31:0] $end
    $var wire 32 < ReadData2 [31:0] $end
    $var wire  1 $ RegWrite $end
    $var wire 32 = ResultData [31:0] $end
    $var wire  2 ) ResultSrc [1:0] $end
    $var wire 32 9 SrcA [31:0] $end
    $var wire 32 : SrcB [31:0] $end
    $var wire  1 , Zero $end
    $var wire 32 g a0 [31:0] $end
    $var wire  1 e clk $end
    $var wire  1 f rst $end
    $scope module alu_inst $end
     $var wire  4 % ALUControl [3:0] $end
     $var wire 32 8 ALUResult [31:0] $end
     $var wire 32 9 SrcA [31:0] $end
     $var wire 32 : SrcB [31:0] $end
     $var wire  1 , Zero $end
    $upscope $end
    $scope module data_mem_inst $end
     $var wire 32 8 A [31:0] $end
     $var wire 32 j ADDRESS_WIDTH [31:0] $end
     $var wire  3 + AddressingControl [2:0] $end
     $var wire 32 k DATA_WIDTH [31:0] $end
     $var wire 32 7 RD [31:0] $end
     $var wire 32 < WD [31:0] $end
     $var wire  1 ( WE $end
     $var wire 32 i XLEN [31:0] $end
     $var wire 17 > addr [16:0] $end
     $var wire  1 e clk $end
    $upscope $end
    $scope module instr_mem_inst $end
     $var wire 32 4 A [31:0] $end
     $var wire 32 - RD [31:0] $end
    $upscope $end
    $scope module pc_inst $end
     $var wire 32 8 ALUResult [31:0] $end
     $var wire 32 6 ImmExt [31:0] $end
     $var wire 32 4 PC [31:0] $end
     $var wire 32 ? PCNext [31:0] $end
     $var wire 32 5 PCPlus4 [31:0] $end
     $var wire  2 # PCSrc [1:0] $end
     $var wire 32 @ PCTarget [31:0] $end
     $var wire 32 i WIDTH [31:0] $end
     $var wire  1 e clk $end
     $var wire  1 f rst $end
    $upscope $end
    $scope module reg_file_inst $end
     $var wire  5 B AD1 [4:0] $end
     $var wire  5 C AD2 [4:0] $end
     $var wire  5 A AD3 [4:0] $end
     $var wire 32 l ADDRESS_WIDTH [31:0] $end
     $var wire 32 i DATA_WIDTH [31:0] $end
     $var wire 32 ; RD1 [31:0] $end
     $var wire 32 < RD2 [31:0] $end
     $var wire 32 = WD3 [31:0] $end
     $var wire  1 $ WE3 $end
     $var wire 32 g a0 [31:0] $end
     $var wire  1 e clk $end
     $var wire 32 D ram_array[0] [31:0] $end
     $var wire 32 N ram_array[10] [31:0] $end
     $var wire 32 O ram_array[11] [31:0] $end
     $var wire 32 P ram_array[12] [31:0] $end
     $var wire 32 Q ram_array[13] [31:0] $end
     $var wire 32 R ram_array[14] [31:0] $end
     $var wire 32 S ram_array[15] [31:0] $end
     $var wire 32 T ram_array[16] [31:0] $end
     $var wire 32 U ram_array[17] [31:0] $end
     $var wire 32 V ram_array[18] [31:0] $end
     $var wire 32 W ram_array[19] [31:0] $end
     $var wire 32 E ram_array[1] [31:0] $end
     $var wire 32 X ram_array[20] [31:0] $end
     $var wire 32 Y ram_array[21] [31:0] $end
     $var wire 32 Z ram_array[22] [31:0] $end
     $var wire 32 [ ram_array[23] [31:0] $end
     $var wire 32 \ ram_array[24] [31:0] $end
     $var wire 32 ] ram_array[25] [31:0] $end
     $var wire 32 ^ ram_array[26] [31:0] $end
     $var wire 32 _ ram_array[27] [31:0] $end
     $var wire 32 ` ram_array[28] [31:0] $end
     $var wire 32 a ram_array[29] [31:0] $end
     $var wire 32 F ram_array[2] [31:0] $end
     $var wire 32 b ram_array[30] [31:0] $end
     $var wire 32 c ram_array[31] [31:0] $end
     $var wire 32 G ram_array[3] [31:0] $end
     $var wire 32 H ram_array[4] [31:0] $end
     $var wire 32 I ram_array[5] [31:0] $end
     $var wire 32 J ram_array[6] [31:0] $end
     $var wire 32 K ram_array[7] [31:0] $end
     $var wire 32 L ram_array[8] [31:0] $end
     $var wire 32 M ram_array[9] [31:0] $end
    $upscope $end
    $scope module sign_ext_inst $end
     $var wire 25 d Imm [31:7] $end
     $var wire 32 6 ImmExt [31:0] $end
     $var wire  3 * ImmSrc [2:0] $end
    $upscope $end
   $upscope $end
  $upscope $end
 $upscope $end
$enddefinitions $end


#0
b00 #
1$
b0000 %
0&
1'
0(
b00 )
b000 *
b000 +
1,
b00000000000000000000000010010011 -
0.
b000 /
b00 0
b0010011 1
b000 2
b0000000 3
b00000000000000000000000000000000 4
b00000000000000000000000000000100 5
b00000000000000000000000000000000 6
b00000000000000000000000000000000 7
b00000000000000000000000000000000 8
b00000000000000000000000000000000 9
b00000000000000000000000000000000 :
b00000000000000000000000000000000 ;
b00000000000000000000000000000000 <
b00000000000000000000000000000000 =
b00000000000000000 >
b00000000000000000000000000000100 ?
b00000000000000000000000000000000 @
b00001 A
b00000 B
b00000 C
b00000000000000000000000000000000 D
b00000000000000000000000000000000 E
b00000000000000000000000000000000 F
b00000000000000000000000000000000 G
b00000000000000000000000000000000 H
b00000000000000000000000000000000 I
b00000000000000000000000000000000 J
b00000000000000000000000000000000 K
b00000000000000000000000000000000 L
b00000000000000000000000000000000 M
b00000000000000000000000000000000 N
b00000000000000000000000000000000 O
b00000000000000000000000000000000 P
b00000000000000000000000000000000 Q
b00000000000000000000000000000000 R
b00000000000000000000000000000000 S
b00000000000000000000000000000000 T
b00000000000000000000000000000000 U
b00000000000000000000000000000000 V
b00000000000000000000000000000000 W
b00000000000000000000000000000000 X
b00000000000000000000000000000000 Y
b00000000000000000000000000000000 Z
b00000000000000000000000000000000 [
b00000000000000000000000000000000 \
b00000000000000000000000000000000 ]
b00000000000000000000000000000000 ^
b00000000000000000000000000000000 _
b00000000000000000000000000000000 `
b00000000000000000000000000000000 a
b00000000000000000000000000000000 b
b00000000000000000000000000000000 c
b0000000000000000000000001 d
1e
1f
b00000000000000000000000000000000 g
0h
b00000000000000000000000000100000 i
b00000000000000000000000000010001 j
b00000000000000000000000000001000 k
b00000000000000000000000000000101 l
#1
0e
#2
1e
#3
0e
#4
1e
#5
0e
#6
1e
#7
0e
#8
1e
#9
0e
#10
1e
#11
0e
#12
1e
#13
0e
#14
1e
#15
0e
#16
1e
#17
0e
#18
1e
#19
0e
#20
0,
b00000000101000000000000100010011 -
b00000000000000000000000000000100 4
b00000000000000000000000000001000 5
b00000000000000000000000000001010 6
b00000000000000000000000000001010 8
b00000000000000000000000000001010 :
b00000000000000000000000000001010 =
b00000000000001010 >
b00000000000000000000000000001000 ?
b00000000000000000000000000001110 @
b00010 A
b01010 C
b0000000010100000000000010 d
1e
0f
#21
0e
#22
b00000000101000000000001000010011 -
b00000000000000000000000000001000 4
b00000000000000000000000000001100 5
b00000000000000000000000000001100 ?
b00000000000000000000000000010010 @
b00100 A
b00000000000000000000000000001010 F
b0000000010100000000000100 d
1e
#23
0e
#24
0$
1(
b001 *
b010 +
b00000000010000010010000000100011 -
b0100011 1
b010 2
b00000000000000000000000000001100 4
b00000000000000000000000000010000 5
b00000000000000000000000000000000 6
b00000000000000000000000000001010 9
b00000000000000000000000000000000 :
b00000000000000000000000000001010 ;
b00000000000000000000000000001010 <
b00000000000000000000000000010000 ?
b00000000000000000000000000001100 @
b00000 A
b00010 B
b00100 C
b00000000000000000000000000001010 H
b0000000001000001001000000 d
1e
#25
0e
#26
b01 #
b0001 %
0'
0(
b010 *
b000 +
1,
b00000000000000001000100001100011 -
1.
b1100011 1
b000 2
b00000000000000000000000000010000 4
b00000000000000000000000000010100 5
b00000000000000000000000000010000 6
b00000000000000000000000000000000 8
b00000000000000000000000000000000 9
b00000000000000000000000000000000 ;
b00000000000000000000000000000000 <
b00000000000000000000000000000000 =
b00000000000000000 >
b00000000000000000000000000100000 ?
b00000000000000000000000000100000 @
b10000 A
b00001 B
b00000 C
b0000000000000000100010000 d
1e
#27
0e
#28
b00 #
1$
b0000 %
1'
b000 *
0,
b00000000000000100000010100010011 -
0.
b0010011 1
b00000000000000000000000000100000 4
b00000000000000000000000000100100 5
b00000000000000000000000000000000 6
b00000000000000000000000000001010 7
b00000000000000000000000000001010 8
b00000000000000000000000000001010 9
b00000000000000000000000000001010 ;
b00000000000000000000000000001010 =
b00000000000001010 >
b00000000000000000000000000100100 ?
b01010 A
b00100 B
b0000000000000010000001010 d
1e
#29
0e
#30
0$
0'
1,
b00000000000000000000000000000000 -
b0000000 1
b00000000000000000000000000100100 4
b00000000000000000000000000101000 5
b00000000000000000000000000000000 7
b00000000000000000000000000000000 8
b00000000000000000000000000000000 9
b00000000000000000000000000000000 ;
b00000000000000000000000000000000 =
b00000000000000000 >
b00000000000000000000000000101000 ?
b00000000000000000000000000100100 @
b00000 A
b00000 B
b00000000000000000000000000001010 N
b0000000000000000000000000 d
1e
b00000000000000000000000000001010 g
#31
0e
#32
b00000000000000000000000000101000 4
b00000000000000000000000000101100 5
b00000000000000000000000000101100 ?
b00000000000000000000000000101000 @
1e
#33
0e
#34
b00000000000000000000000000101100 4
b00000000000000000000000000110000 5
b00000000000000000000000000110000 ?
b00000000000000000000000000101100 @
1e
#35
0e
#36
b00000000000000000000000000110000 4
b00000000000000000000000000110100 5
b00000000000000000000000000110100 ?
b00000000000000000000000000110000 @
1e
#37
0e
#38
b00000000000000000000000000110100 4
b00000000000000000000000000111000 5
b00000000000000000000000000111000 ?
b00000000000000000000000000110100 @
1e
#39
0e
#40
b00000000000000000000000000111000 4
b00000000000000000000000000111100 5
b00000000000000000000000000111100 ?
b00000000000000000000000000111000 @
1e
#41
0e
#42
b00000000000000000000000000111100 4
b00000000000000000000000001000000 5
b00000000000000000000000001000000 ?
b00000000000000000000000000111100 @
1e
#43
0e
#44
b00000000000000000000000001000000 4
b00000000000000000000000001000100 5
b00000000000000000000000001000100 ?
b00000000000000000000000001000000 @
1e
#45
0e
#46
b00000000000000000000000001000100 4
b00000000000000000000000001001000 5
b00000000000000000000000001001000 ?
b00000000000000000000000001000100 @
1e
#47
0e
#48
b00000000000000000000000001001000 4
b00000000000000000000000001001100 5
b00000000000000000000000001001100 ?
b00000000000000000000000001001000 @
1e
#49
0e
#50
b00000000000000000000000001001100 4
b00000000000000000000000001010000 5
b00000000000000000000000001010000 ?
b00000000000000000000000001001100 @
1e
#51
0e
#52
b00000000000000000000000001010000 4
b00000000000000000000000001010100 5
b00000000000000000000000001010100 ?
b00000000000000000000000001010000 @
1e
#53
0e
#54
b00000000000000000000000001010100 4
b00000000000000000000000001011000 5
b00000000000000000000000001011000 ?
b00000000000000000000000001010100 @
1e
#55
0e
#56
b00000000000000000000000001011000 4
b00000000000000000000000001011100 5
b00000000000000000000000001011100 ?
b00000000000000000000000001011000 @
1e
#57
0e
#58
b00000000000000000000000001011100 4
b00000000000000000000000001100000 5
b00000000000000000000000001100000 ?
b00000000000000000000000001011100 @
1e
#59
0e
#60
b00000000000000000000000001100000 4
b00000000000000000000000001100100 5
b00000000000000000000000001100100 ?
b00000000000000000000000001100000 @
1e
#61
0e
#62
b00000000000000000000000001100100 4
b00000000000000000000000001101000 5
b00000000000000000000000001101000 ?
b00000000000000000000000001100100 @
1e
#63
0e
#64
b00000000000000000000000001101000 4
b00000000000000000000000001101100 5
b00000000000000000000000001101100 ?
b00000000000000000000000001101000 @
1e
#65
0e
#66
b00000000000000000000000001101100 4
b00000000000000000000000001110000 5
b00000000000000000000000001110000 ?
b00000000000000000000000001101100 @
1e
#67
0e
#68
b00000000000000000000000001110000 4
b00000000000000000000000001110100 5
b00000000000000000000000001110100 ?
b00000000000000000000000001110000 @
1e
#69
0e
#70
b00000000000000000000000001110100 4
b00000000000000000000000001111000 5
b00000000000000000000000001111000 ?
b00000000000000000000000001110100 @
1e
#71
0e
#72
b00000000000000000000000001111000 4
b00000000000000000000000001111100 5
b00000000000000000000000001111100 ?
b00000000000000000000000001111000 @
1e
#73
0e
#74
b00000000000000000000000001111100 4
b00000000000000000000000010000000 5
b00000000000000000000000010000000 ?
b00000000000000000000000001111100 @
1e
#75
0e
#76
b00000000000000000000000010000000 4
b00000000000000000000000010000100 5
b00000000000000000000000010000100 ?
b00000000000000000000000010000000 @
1e
#77
0e
#78
b00000000000000000000000010000100 4
b00000000000000000000000010001000 5
b00000000000000000000000010001000 ?
b00000000000000000000000010000100 @
1e
#79
0e
#80
b00000000000000000000000010001000 4
b00000000000000000000000010001100 5
b00000000000000000000000010001100 ?
b00000000000000000000000010001000 @
1e
#81
0e
#82
b00000000000000000000000010001100 4
b00000000000000000000000010010000 5
b00000000000000000000000010010000 ?
b00000000000000000000000010001100 @
1e
#83
0e
#84
b00000000000000000000000010010000 4
b00000000000000000000000010010100 5
b00000000000000000000000010010100 ?
b00000000000000000000000010010000 @
1e
#85
0e
#86
b00000000000000000000000010010100 4
b00000000000000000000000010011000 5
b00000000000000000000000010011000 ?
b00000000000000000000000010010100 @
1e
#87
0e
#88
b00000000000000000000000010011000 4
b00000000000000000000000010011100 5
b00000000000000000000000010011100 ?
b00000000000000000000000010011000 @
1e
#89
0e
#90
b00000000000000000000000010011100 4
b00000000000000000000000010100000 5
b00000000000000000000000010100000 ?
b00000000000000000000000010011100 @
1e
#91
0e
#92
b00000000000000000000000010100000 4
b00000000000000000000000010100100 5
b00000000000000000000000010100100 ?
b00000000000000000000000010100000 @
1e
#93
0e
#94
b00000000000000000000000010100100 4
b00000000000000000000000010101000 5
b00000000000000000000000010101000 ?
b00000000000000000000000010100100 @
1e
#95
0e
#96
b00000000000000000000000010101000 4
b00000000000000000000000010101100 5
b00000000000000000000000010101100 ?
b00000000000000000000000010101000 @
1e
#97
0e
#98
b00000000000000000000000010101100 4
b00000000000000000000000010110000 5
b00000000000000000000000010110000 ?
b00000000000000000000000010101100 @
1e
#99
0e
#100
b00000000000000000000000010110000 4
b00000000000000000000000010110100 5
b00000000000000000000000010110100 ?
b00000000000000000000000010110000 @
1e
#101
0e
#102
b00000000000000000000000010110100 4
b00000000000000000000000010111000 5
b00000000000000000000000010111000 ?
b00000000000000000000000010110100 @
1e
#103
0e
#104
b00000000000000000000000010111000 4
b00000000000000000000000010111100 5
b00000000000000000000000010111100 ?
b00000000000000000000000010111000 @
1e
#105
0e
#106
b00000000000000000000000010111100 4
b00000000000000000000000011000000 5
b00000000000000000000000011000000 ?
b00000000000000000000000010111100 @
1e
#107
0e
#108
b00000000000000000000000011000000 4
b00000000000000000000000011000100 5
b00000000000000000000000011000100 ?
b00000000000000000000000011000000 @
1e
#109
0e
#110
b00000000000000000000000011000100 4
b00000000000000000000000011001000 5
b00000000000000000000000011001000 ?
b00000000000000000000000011000100 @
1e
#111
0e
#112
b00000000000000000000000011001000 4
b00000000000000000000000011001100 5
b00000000000000000000000011001100 ?
b00000000000000000000000011001000 @
1e
#113
0e
#114
b00000000000000000000000011001100 4
b00000000000000000000000011010000 5
b00000000000000000000000011010000 ?
b00000000000000000000000011001100 @
1e
#115
0e
#116
b00000000000000000000000011010000 4
b00000000000000000000000011010100 5
b00000000000000000000000011010100 ?
b00000000000000000000000011010000 @
1e
#117
0e
#118
b00000000000000000000000011010100 4
b00000000000000000000000011011000 5
b00000000000000000000000011011000 ?
b00000000000000000000000011010100 @
1e
#119
0e
#120
b00000000000000000000000011011000 4
b00000000000000000000000011011100 5
b00000000000000000000000011011100 ?
b00000000000000000000000011011000 @
1e
#121
0e
#122
b00000000000000000000000011011100 4
b00000000000000000000000011100000 5
b00000000000000000000000011100000 ?
b00000000000000000000000011011100 @
1e
#123
0e
#124
b00000000000000000000000011100000 4
b00000000000000000000000011100100 5
b00000000000000000000000011100100 ?
b00000000000000000000000011100000 @
1e
#125
0e
#126
b00000000000000000000000011100100 4
b00000000000000000000000011101000 5
b00000000000000000000000011101000 ?
b00000000000000000000000011100100 @
1e
#127
0e
#128
b00000000000000000000000011101000 4
b00000000000000000000000011101100 5
b00000000000000000000000011101100 ?
b00000000000000000000000011101000 @
1e
#129
0e
#130
b00000000000000000000000011101100 4
b00000000000000000000000011110000 5
b00000000000000000000000011110000 ?
b00000000000000000000000011101100 @
1e
#131
0e
#132
b00000000000000000000000011110000 4
b00000000000000000000000011110100 5
b00000000000000000000000011110100 ?
b00000000000000000000000011110000 @
1e
#133
0e
#134
b00000000000000000000000011110100 4
b00000000000000000000000011111000 5
b00000000000000000000000011111000 ?
b00000000000000000000000011110100 @
1e
#135
0e
#136
b00000000000000000000000011111000 4
b00000000000000000000000011111100 5
b00000000000000000000000011111100 ?
b00000000000000000000000011111000 @
1e
#137
0e
#138
b00000000000000000000000011111100 4
b00000000000000000000000100000000 5
b00000000000000000000000100000000 ?
b00000000000000000000000011111100 @
1e
#139
0e
#140
b00000000000000000000000100000000 4
b00000000000000000000000100000100 5
b00000000000000000000000100000100 ?
b00000000000000000000000100000000 @
1e
#141
0e
#142
b00000000000000000000000100000100 4
b00000000000000000000000100001000 5
b00000000000000000000000100001000 ?
b00000000000000000000000100000100 @
1e
#143
0e
#144
b00000000000000000000000100001000 4
b00000000000000000000000100001100 5
b00000000000000000000000100001100 ?
b00000000000000000000000100001000 @
1e
#145
0e
#146
b00000000000000000000000100001100 4
b00000000000000000000000100010000 5
b00000000000000000000000100010000 ?
b00000000000000000000000100001100 @
1e
#147
0e
#148
b00000000000000000000000100010000 4
b00000000000000000000000100010100 5
b00000000000000000000000100010100 ?
b00000000000000000000000100010000 @
1e
#149
0e
#150
b00000000000000000000000100010100 4
b00000000000000000000000100011000 5
b00000000000000000000000100011000 ?
b00000000000000000000000100010100 @
1e
#151
0e
#152
b00000000000000000000000100011000 4
b00000000000000000000000100011100 5
b00000000000000000000000100011100 ?
b00000000000000000000000100011000 @
1e
#153
0e
#154
b00000000000000000000000100011100 4
b00000000000000000000000100100000 5
b00000000000000000000000100100000 ?
b00000000000000000000000100011100 @
1e
#155
0e
#156
b00000000000000000000000100100000 4
b00000000000000000000000100100100 5
b00000000000000000000000100100100 ?
b00000000000000000000000100100000 @
1e
#157
0e
#158
b00000000000000000000000100100100 4
b00000000000000000000000100101000 5
b00000000000000000000000100101000 ?
b00000000000000000000000100100100 @
1e
#159
0e
#160
b00000000000000000000000100101000 4
b00000000000000000000000100101100 5
b00000000000000000000000100101100 ?
b00000000000000000000000100101000 @
1e
#161
0e
#162
b00000000000000000000000100101100 4
b00000000000000000000000100110000 5
b00000000000000000000000100110000 ?
b00000000000000000000000100101100 @
1e
#163
0e
#164
b00000000000000000000000100110000 4
b00000000000000000000000100110100 5
b00000000000000000000000100110100 ?
b00000000000000000000000100110000 @
1e
#165
0e
#166
b00000000000000000000000100110100 4
b00000000000000000000000100111000 5
b00000000000000000000000100111000 ?
b00000000000000000000000100110100 @
1e
#167
0e
#168
b00000000000000000000000100111000 4
b00000000000000000000000100111100 5
b00000000000000000000000100111100 ?
b00000000000000000000000100111000 @
1e
#169
0e
#170
b00000000000000000000000100111100 4
b00000000000000000000000101000000 5
b00000000000000000000000101000000 ?
b00000000000000000000000100111100 @
1e
#171
0e
#172
b00000000000000000000000101000000 4
b00000000000000000000000101000100 5
b00000000000000000000000101000100 ?
b00000000000000000000000101000000 @
1e
#173
0e
#174
b00000000000000000000000101000100 4
b00000000000000000000000101001000 5
b00000000000000000000000101001000 ?
b00000000000000000000000101000100 @
1e
#175
0e
#176
b00000000000000000000000101001000 4
b00000000000000000000000101001100 5
b00000000000000000000000101001100 ?
b00000000000000000000000101001000 @
1e
#177
0e
#178
b00000000000000000000000101001100 4
b00000000000000000000000101010000 5
b00000000000000000000000101010000 ?
b00000000000000000000000101001100 @
1e
#179
0e
#180
b00000000000000000000000101010000 4
b00000000000000000000000101010100 5
b00000000000000000000000101010100 ?
b00000000000000000000000101010000 @
1e
#181
0e
#182
b00000000000000000000000101010100 4
b00000000000000000000000101011000 5
b00000000000000000000000101011000 ?
b00000000000000000000000101010100 @
1e
#183
0e
#184
b00000000000000000000000101011000 4
b00000000000000000000000101011100 5
b00000000000000000000000101011100 ?
b00000000000000000000000101011000 @
1e
#185
0e
#186
b00000000000000000000000101011100 4
b00000000000000000000000101100000 5
b00000000000000000000000101100000 ?
b00000000000000000000000101011100 @
1e
#187
0e
#188
b00000000000000000000000101100000 4
b00000000000000000000000101100100 5
b00000000000000000000000101100100 ?
b00000000000000000000000101100000 @
1e
#189
0e
#190
b00000000000000000000000101100100 4
b00000000000000000000000101101000 5
b00000000000000000000000101101000 ?
b00000000000000000000000101100100 @
1e
#191
0e
#192
b00000000000000000000000101101000 4
b00000000000000000000000101101100 5
b00000000000000000000000101101100 ?
b00000000000000000000000101101000 @
1e
#193
0e
#194
b00000000000000000000000101101100 4
b00000000000000000000000101110000 5
b00000000000000000000000101110000 ?
b00000000000000000000000101101100 @
1e
#195
0e
#196
b00000000000000000000000101110000 4
b00000000000000000000000101110100 5
b00000000000000000000000101110100 ?
b00000000000000000000000101110000 @
1e
#197
0e
#198
b00000000000000000000000101110100 4
b00000000000000000000000101111000 5
b00000000000000000000000101111000 ?
b00000000000000000000000101110100 @
1e
#199
0e
#200
b00000000000000000000000101111000 4
b00000000000000000000000101111100 5
b00000000000000000000000101111100 ?
b00000000000000000000000101111000 @
1e
#201
0e
#202
b00000000000000000000000101111100 4
b00000000000000000000000110000000 5
b00000000000000000000000110000000 ?
b00000000000000000000000101111100 @
1e
#203
0e
#204
b00000000000000000000000110000000 4
b00000000000000000000000110000100 5
b00000000000000000000000110000100 ?
b00000000000000000000000110000000 @
1e
#205
0e
#206
b00000000000000000000000110000100 4
b00000000000000000000000110001000 5
b00000000000000000000000110001000 ?
b00000000000000000000000110000100 @
1e
#207
0e
#208
b00000000000000000000000110001000 4
b00000000000000000000000110001100 5
b00000000000000000000000110001100 ?
b00000000000000000000000110001000 @
1e
#209
0e
#210
b00000000000000000000000110001100 4
b00000000000000000000000110010000 5
b00000000000000000000000110010000 ?
b00000000000000000000000110001100 @
1e
#211
0e
#212
b00000000000000000000000110010000 4
b00000000000000000000000110010100 5
b00000000000000000000000110010100 ?
b00000000000000000000000110010000 @
1e
#213
0e
#214
b00000000000000000000000110010100 4
b00000000000000000000000110011000 5
b00000000000000000000000110011000 ?
b00000000000000000000000110010100 @
1e
#215
0e
#216
b00000000000000000000000110011000 4
b00000000000000000000000110011100 5
b00000000000000000000000110011100 ?
b00000000000000000000000110011000 @
1e
#217
0e
#218
b00000000000000000000000110011100 4
b00000000000000000000000110100000 5
b00000000000000000000000110100000 ?
b00000000000000000000000110011100 @
1e
#219
0e
#220
b00000000000000000000000110100000 4
b00000000000000000000000110100100 5
b00000000000000000000000110100100 ?
b00000000000000000000000110100000 @
1e
#221
0e
#222
b00000000000000000000000110100100 4
b00000000000000000000000110101000 5
b00000000000000000000000110101000 ?
b00000000000000000000000110100100 @
1e
#223
0e
#224
b00000000000000000000000110101000 4
b00000000000000000000000110101100 5
b00000000000000000000000110101100 ?
b00000000000000000000000110101000 @
1e
#225
0e
#226
b00000000000000000000000110101100 4
b00000000000000000000000110110000 5
b00000000000000000000000110110000 ?
b00000000000000000000000110101100 @
1e
#227
0e
#228
b00000000000000000000000110110000 4
b00000000000000000000000110110100 5
b00000000000000000000000110110100 ?
b00000000000000000000000110110000 @
1e
#229
0e
#230
b00000000000000000000000110110100 4
b00000000000000000000000110111000 5
b00000000000000000000000110111000 ?
b00000000000000000000000110110100 @
1e
#231
0e
#232
b00000000000000000000000110111000 4
b00000000000000000000000110111100 5
b00000000000000000000000110111100 ?
b00000000000000000000000110111000 @
1e
#233
0e
#234
b00000000000000000000000110111100 4
b00000000000000000000000111000000 5
b00000000000000000000000111000000 ?
b00000000000000000000000110111100 @
1e
#235
0e
#236
b00000000000000000000000111000000 4
b00000000000000000000000111000100 5
b00000000000000000000000111000100 ?
b00000000000000000000000111000000 @
1e
#237
0e
#238
b00000000000000000000000111000100 4
b00000000000000000000000111001000 5
b00000000000000000000000111001000 ?
b00000000000000000000000111000100 @
1e
#239
0e
#240
b00000000000000000000000111001000 4
b00000000000000000000000111001100 5
b00000000000000000000000111001100 ?
b00000000000000000000000111001000 @
1e
#241
0e
#242
b00000000000000000000000111001100 4
b00000000000000000000000111010000 5
b00000000000000000000000111010000 ?
b00000000000000000000000111001100 @
1e
#243
0e
#244
b00000000000000000000000111010000 4
b00000000000000000000000111010100 5
b00000000000000000000000111010100 ?
b00000000000000000000000111010000 @
1e
#245
0e
#246
b00000000000000000000000111010100 4
b00000000000000000000000111011000 5
b00000000000000000000000111011000 ?
b00000000000000000000000111010100 @
1e
#247
0e
#248
b00000000000000000000000111011000 4
b00000000000000000000000111011100 5
b00000000000000000000000111011100 ?
b00000000000000000000000111011000 @
1e
#249
0e
#250
b00000000000000000000000111011100 4
b00000000000000000000000111100000 5
b00000000000000000000000111100000 ?
b00000000000000000000000111011100 @
1e
#251
0e
#252
b00000000000000000000000111100000 4
b00000000000000000000000111100100 5
b00000000000000000000000111100100 ?
b00000000000000000000000111100000 @
1e
#253
0e
#254
b00000000000000000000000111100100 4
b00000000000000000000000111101000 5
b00000000000000000000000111101000 ?
b00000000000000000000000111100100 @
1e
#255
0e
#256
b00000000000000000000000111101000 4
b00000000000000000000000111101100 5
b00000000000000000000000111101100 ?
b00000000000000000000000111101000 @
1e
#257
0e
#258
b00000000000000000000000111101100 4
b00000000000000000000000111110000 5
b00000000000000000000000111110000 ?
b00000000000000000000000111101100 @
1e
#259
0e
#260
b00000000000000000000000111110000 4
b00000000000000000000000111110100 5
b00000000000000000000000111110100 ?
b00000000000000000000000111110000 @
1e
#261
0e
#262
b00000000000000000000000111110100 4
b00000000000000000000000111111000 5
b00000000000000000000000111111000 ?
b00000000000000000000000111110100 @
1e
#263
0e
#264
b00000000000000000000000111111000 4
b00000000000000000000000111111100 5
b00000000000000000000000111111100 ?
b00000000000000000000000111111000 @
1e
#265
0e
#266
b00000000000000000000000111111100 4
b00000000000000000000001000000000 5
b00000000000000000000001000000000 ?
b00000000000000000000000111111100 @
1e
#267
0e
#268
b00000000000000000000001000000000 4
b00000000000000000000001000000100 5
b00000000000000000000001000000100 ?
b00000000000000000000001000000000 @
1e
#269
0e
#270
b00000000000000000000001000000100 4
b00000000000000000000001000001000 5
b00000000000000000000001000001000 ?
b00000000000000000000001000000100 @
1e
#271
0e
#272
b00000000000000000000001000001000 4
b00000000000000000000001000001100 5
b00000000000000000000001000001100 ?
b00000000000000000000001000001000 @
1e
#273
0e
#274
b00000000000000000000001000001100 4
b00000000000000000000001000010000 5
b00000000000000000000001000010000 ?
b00000000000000000000001000001100 @
1e
#275
0e
#276
b00000000000000000000001000010000 4
b00000000000000000000001000010100 5
b00000000000000000000001000010100 ?
b00000000000000000000001000010000 @
1e
#277
0e
#278
b00000000000000000000001000010100 4
b00000000000000000000001000011000 5
b00000000000000000000001000011000 ?
b00000000000000000000001000010100 @
1e
#279
0e
#280
b00000000000000000000001000011000 4
b00000000000000000000001000011100 5
b00000000000000000000001000011100 ?
b00000000000000000000001000011000 @
1e
#281
0e
